{
    "content": [
        {
            "id": 21,
            "nombreEstablecimiento": "LIC ESTRELLITA ESTUDIANTIL                                                                          ",
            "zona": "URBANA",
            "direccion": "KR 64 64 64",
            "telefono": "2310592",
            "tipoEstablecimiento": "CENTRO EDUCATIVO",
            "niveles": "PREESCOLAR,BÁSICA PRIMARIA",
            "jornadas": "COMPLETA",
            "especialidad": null,
            "modelosEducativos": "EDUCACIÓN TRADICIONAL",
            "capacidadesExcepcionales": null,
            "discapacidades": null,
            "idiomas": "INGLÉS",
            "prestadorDeServicio": "PERSONA NATURAL",
            "propiedadPlantaFisica": "PERSONA NATURAL",
            "calendario": "A",
            "correoElectronico": "lee5815@hotmail.com   estrellitaestudiantil@hotmail.com                               "
        },
        {
            "id": 22,
            "nombreEstablecimiento": "COL LUIGI PIRANDELLO",
            "zona": "URBANA",
            "direccion": "KR 113 74 B 06",
            "telefono": "4424545 -- 2286068",
            "tipoEstablecimiento": "INSTITUCION EDUCATIVA",
            "niveles": "PREESCOLAR,MEDIA,BÁSICA SECUNDARIA,BÁSICA PRIMARIA",
            "jornadas": "COMPLETA",
            "especialidad": "ACADÉMICA",
            "modelosEducativos": "EDUCACIÓN TRADICIONAL",
            "capacidadesExcepcionales": null,
            "discapacidades": null,
            "idiomas": "INGLÉS",
            "prestadorDeServicio": "PERSONA NATURAL",
            "propiedadPlantaFisica": "PERSONA NATURAL",
            "calendario": "A",
            "correoElectronico": "clp2013academico@gmail.com -- clp.secretaria@gmail.com -- academicaclp@gmail.com"
        },
        {
            "id": 23,
            "nombreEstablecimiento": "JARDIN INFANTIL CAMPESTRE MI BELLA IMAGEN                                                           ",
            "zona": "URBANA",
            "direccion": "KR 17 164 39",
            "telefono": "6727120",
            "tipoEstablecimiento": "CENTRO EDUCATIVO",
            "niveles": "PREESCOLAR",
            "jornadas": "COMPLETA",
            "especialidad": null,
            "modelosEducativos": "EDUCACIÓN TRADICIONAL",
            "capacidadesExcepcionales": null,
            "discapacidades": null,
            "idiomas": null,
            "prestadorDeServicio": "PERSONA NATURAL",
            "propiedadPlantaFisica": "PERSONA NATURAL",
            "calendario": "A",
            "correoElectronico": "pinzonuseche@hotmail.com"
        },
        {
            "id": 24,
            "nombreEstablecimiento": "COLEGIO MARCO FIDEL SUAREZ (IED)",
            "zona": "URBANA",
            "direccion": "DG 52 SUR 25 00",
            "telefono": "2388713  --  2304300  --  7410022",
            "tipoEstablecimiento": "INSTITUCION EDUCATIVA",
            "niveles": "PREESCOLAR,MEDIA,BÁSICA SECUNDARIA,BÁSICA PRIMARIA",
            "jornadas": "MAÑANA,TARDE",
            "especialidad": "ACADÉMICA",
            "modelosEducativos": "EDUCACIÓN TRADICIONAL",
            "capacidadesExcepcionales": null,
            "discapacidades": null,
            "idiomas": null,
            "prestadorDeServicio": "OFICIAL",
            "propiedadPlantaFisica": "OFICIAL",
            "calendario": "A",
            "correoElectronico": "coldimarcofidelsua6@redp.edu.co"
        },
        {
            "id": 25,
            "nombreEstablecimiento": "INST ORESTES SINDICI                                                                                ",
            "zona": "URBANA",
            "direccion": "CL 63 A SUR 70 G 84",
            "telefono": "7754882",
            "tipoEstablecimiento": "INSTITUCION EDUCATIVA",
            "niveles": "PREESCOLAR,MEDIA,BÁSICA SECUNDARIA,BÁSICA PRIMARIA",
            "jornadas": "COMPLETA",
            "especialidad": "ACADÉMICA",
            "modelosEducativos": "EDUCACIÓN TRADICIONAL",
            "capacidadesExcepcionales": null,
            "discapacidades": null,
            "idiomas": null,
            "prestadorDeServicio": "PERSONA NATURAL",
            "propiedadPlantaFisica": "PERSONA NATURAL",
            "calendario": "A",
            "correoElectronico": "orestesindici@yahoo.com"
        },
        {
            "id": 26,
            "nombreEstablecimiento": "COL DEL BOSQUE                                                                                      ",
            "zona": "URBANA",
            "direccion": "KR 65 170 25",
            "telefono": "6772499 -- 6729277 -- 6733068",
            "tipoEstablecimiento": "INSTITUCION EDUCATIVA",
            "niveles": "PREESCOLAR,MEDIA,BÁSICA SECUNDARIA,BÁSICA PRIMARIA",
            "jornadas": "COMPLETA",
            "especialidad": "ACADÉMICA",
            "modelosEducativos": "EDUCACIÓN TRADICIONAL",
            "capacidadesExcepcionales": null,
            "discapacidades": null,
            "idiomas": "INGLÉS",
            "prestadorDeServicio": "PERSONA NATURAL",
            "propiedadPlantaFisica": "PERSONA NATURAL",
            "calendario": "A",
            "correoElectronico": "rectoria.delbosque@uan.edu.co -- tesoreria.delbosque@uan.edu.co"
        },
        {
            "id": 27,
            "nombreEstablecimiento": "INST SANTA INES                                                                                     ",
            "zona": "URBANA",
            "direccion": "KR 46 A 71 85",
            "telefono": "2319669",
            "tipoEstablecimiento": "CENTRO EDUCATIVO",
            "niveles": "PREESCOLAR,BÁSICA PRIMARIA",
            "jornadas": "COMPLETA",
            "especialidad": null,
            "modelosEducativos": "EDUCACIÓN TRADICIONAL",
            "capacidadesExcepcionales": null,
            "discapacidades": null,
            "idiomas": "INGLÉS",
            "prestadorDeServicio": "PERSONA NATURAL",
            "propiedadPlantaFisica": "PERSONA NATURAL",
            "calendario": "A",
            "correoElectronico": null
        },
        {
            "id": 28,
            "nombreEstablecimiento": "CENTRO DE EDUCACION LABORAL",
            "zona": "URBANA",
            "direccion": "AC 72 77 A 73",
            "telefono": "5440960 -- 4371664 -- 5454268 -- 3143345344",
            "tipoEstablecimiento": "INSTITUCION EDUCATIVA",
            "niveles": "MEDIA,BÁSICA SECUNDARIA",
            "jornadas": "COMPLETA,NOCTURNA",
            "especialidad": "ACADÉMICA",
            "modelosEducativos": "PROGRAMA PARA JÓVENES EN EXTRAEDAD Y ADULTOS",
            "capacidadesExcepcionales": null,
            "discapacidades": null,
            "idiomas": null,
            "prestadorDeServicio": "PERSONA NATURAL",
            "propiedadPlantaFisica": "PERSONA NATURAL",
            "calendario": "A",
            "correoElectronico": null
        },
        {
            "id": 29,
            "nombreEstablecimiento": "LIC ADOLFO LEON GOMEZ                                                                               ",
            "zona": "URBANA",
            "direccion": "KR 3 ESTE 101 A 08 SUR",
            "telefono": "7682486",
            "tipoEstablecimiento": "INSTITUCION EDUCATIVA",
            "niveles": "MEDIA,BÁSICA SECUNDARIA",
            "jornadas": "NOCTURNA,FIN DE SEMANA",
            "especialidad": "OTRO,COMERCIAL",
            "modelosEducativos": "PROGRAMA PARA JÓVENES EN EXTRAEDAD Y ADULTOS",
            "capacidadesExcepcionales": null,
            "discapacidades": null,
            "idiomas": null,
            "prestadorDeServicio": "PERSONA NATURAL",
            "propiedadPlantaFisica": "PERSONA NATURAL",
            "calendario": "A",
            "correoElectronico": "colegio_lalg@hotmail.com"
        },
        {
            "id": 30,
            "nombreEstablecimiento": "COL CENTRO CULTURAL                                                                                 ",
            "zona": "URBANA",
            "direccion": "CL 72 SUR 2 A 32",
            "telefono": "5699286 -- 7623886",
            "tipoEstablecimiento": "INSTITUCION EDUCATIVA",
            "niveles": "PREESCOLAR,MEDIA,BÁSICA SECUNDARIA,BÁSICA PRIMARIA",
            "jornadas": "COMPLETA",
            "especialidad": "OTRO,ACADÉMICA",
            "modelosEducativos": "PROGRAMA PARA JÓVENES EN EXTRAEDAD Y ADULTOS,EDUCACIÓN TRADICIONAL",
            "capacidadesExcepcionales": null,
            "discapacidades": "DI-COGNITIVO",
            "idiomas": null,
            "prestadorDeServicio": "PERSONA NATURAL",
            "propiedadPlantaFisica": "PERSONA NATURAL",
            "calendario": "A",
            "correoElectronico": "colegiocentrocultural22@latinmail.com"
        },
        {
            "id": 31,
            "nombreEstablecimiento": "LIC PEDAGOGICO  LOS SAUCES                                                                          ",
            "zona": "URBANA",
            "direccion": "CLL. 134 NO.105A-04",
            "telefono": "6883725",
            "tipoEstablecimiento": "CENTRO EDUCATIVO",
            "niveles": "PREESCOLAR,BÁSICA PRIMARIA",
            "jornadas": "MAÑANA",
            "especialidad": null,
            "modelosEducativos": "EDUCACIÓN TRADICIONAL",
            "capacidadesExcepcionales": null,
            "discapacidades": "LESIÓN NEUROMUSCULAR,PARALISIS CEREBRAL,SORDERA PROFUNDA,HIPOACUSIA O BAJA AUDICIÓN",
            "idiomas": "INGLÉS",
            "prestadorDeServicio": "PERSONA NATURAL",
            "propiedadPlantaFisica": "PERSONA NATURAL",
            "calendario": "A",
            "correoElectronico": null
        },
        {
            "id": 32,
            "nombreEstablecimiento": "LIC SANTA PAULA",
            "zona": "URBANA",
            "direccion": "CR. 92A NO.76-42/32",
            "telefono": null,
            "tipoEstablecimiento": "INSTITUCION EDUCATIVA",
            "niveles": "PREESCOLAR,MEDIA,BÁSICA SECUNDARIA,BÁSICA PRIMARIA",
            "jornadas": "COMPLETA",
            "especialidad": "ACADÉMICA",
            "modelosEducativos": "EDUCACIÓN TRADICIONAL",
            "capacidadesExcepcionales": null,
            "discapacidades": null,
            "idiomas": null,
            "prestadorDeServicio": "PERSONA NATURAL",
            "propiedadPlantaFisica": "PERSONA NATURAL",
            "calendario": "A",
            "correoElectronico": null
        },
        {
            "id": 33,
            "nombreEstablecimiento": "COL DEL SAGRADO CORAZON DE JESUS BETHLEMITAS                                                        ",
            "zona": "URBANA",
            "direccion": "KR 7 65 42",
            "telefono": "3479700",
            "tipoEstablecimiento": "INSTITUCION EDUCATIVA",
            "niveles": "PREESCOLAR,MEDIA,BÁSICA SECUNDARIA,BÁSICA PRIMARIA",
            "jornadas": "COMPLETA",
            "especialidad": "ACADÉMICA",
            "modelosEducativos": "EDUCACIÓN TRADICIONAL",
            "capacidadesExcepcionales": null,
            "discapacidades": "DI-COGNITIVO",
            "idiomas": null,
            "prestadorDeServicio": "COMUNIDAD RELIGIOSA",
            "propiedadPlantaFisica": "COMUNIDAD RELIGIOSA",
            "calendario": "A",
            "correoElectronico": "info@bethlemitasbogota.edu.co"
        },
        {
            "id": 35,
            "nombreEstablecimiento": "GIMNASIO NUESTRA SEÑORA DE LA ESPERANZA",
            "zona": "URBANA",
            "direccion": "DG 45 B SUR 8 30 ESTE",
            "telefono": "3641973 -- 8123572",
            "tipoEstablecimiento": "INSTITUCION EDUCATIVA",
            "niveles": "PREESCOLAR,MEDIA,BÁSICA SECUNDARIA,BÁSICA PRIMARIA",
            "jornadas": "COMPLETA",
            "especialidad": "ACADÉMICA",
            "modelosEducativos": "EDUCACIÓN TRADICIONAL",
            "capacidadesExcepcionales": null,
            "discapacidades": null,
            "idiomas": "INGLÉS",
            "prestadorDeServicio": "PERSONA NATURAL",
            "propiedadPlantaFisica": "PERSONA NATURAL",
            "calendario": "A",
            "correoElectronico": "gim.nuestrasenoradelaesperanza@gmail.com"
        },
        {
            "id": 36,
            "nombreEstablecimiento": "COL INTEGRADO SANTO TORIBIO DE MOGROVEJO                                                            ",
            "zona": "URBANA",
            "direccion": "CL 49 A SUR 5 A 37",
            "telefono": "2793971",
            "tipoEstablecimiento": "CENTRO EDUCATIVO",
            "niveles": "PREESCOLAR,BÁSICA PRIMARIA",
            "jornadas": "COMPLETA",
            "especialidad": null,
            "modelosEducativos": "EDUCACIÓN TRADICIONAL",
            "capacidadesExcepcionales": null,
            "discapacidades": null,
            "idiomas": "INGLÉS",
            "prestadorDeServicio": "PERSONA NATURAL",
            "propiedadPlantaFisica": "PERSONA NATURAL",
            "calendario": "A",
            "correoElectronico": "elcycarreno@yahoo.com                             "
        },
        {
            "id": 37,
            "nombreEstablecimiento": "GIMN WILLIAM MACKINLEY                                                                              ",
            "zona": "URBANA",
            "direccion": "DG 22 B 48 53",
            "telefono": "3690404 / 05 / 06",
            "tipoEstablecimiento": "INSTITUCION EDUCATIVA",
            "niveles": "PREESCOLAR,MEDIA,BÁSICA SECUNDARIA,BÁSICA PRIMARIA",
            "jornadas": "COMPLETA",
            "especialidad": "ACADÉMICA",
            "modelosEducativos": "EDUCACIÓN TRADICIONAL",
            "capacidadesExcepcionales": null,
            "discapacidades": null,
            "idiomas": null,
            "prestadorDeServicio": "PERSONA NATURAL",
            "propiedadPlantaFisica": "PERSONA NATURAL",
            "calendario": "A",
            "correoElectronico": "gwmk@gwmk.net -- gwmk@gwmk.edu.co"
        },
        {
            "id": 38,
            "nombreEstablecimiento": "LICEO BET-EL",
            "zona": "URBANA",
            "direccion": "KR 90 135 B 68",
            "telefono": null,
            "tipoEstablecimiento": "INSTITUCION EDUCATIVA",
            "niveles": "MEDIA,BÁSICA SECUNDARIA",
            "jornadas": "ÚNICA",
            "especialidad": "ACADÉMICA",
            "modelosEducativos": "EDUCACIÓN TRADICIONAL",
            "capacidadesExcepcionales": null,
            "discapacidades": null,
            "idiomas": null,
            "prestadorDeServicio": "PERSONA NATURAL",
            "propiedadPlantaFisica": "PERSONA NATURAL",
            "calendario": "A",
            "correoElectronico": null
        },
        {
            "id": 39,
            "nombreEstablecimiento": "COLEGIO INTEGRADO EDUARDO CABALLERO CALDERON",
            "zona": "URBANA",
            "direccion": "CL 132 D BIS 132 08",
            "telefono": "6890458 -- 6900264",
            "tipoEstablecimiento": "INSTITUCION EDUCATIVA",
            "niveles": "PREESCOLAR,MEDIA,BÁSICA SECUNDARIA,BÁSICA PRIMARIA",
            "jornadas": "COMPLETA",
            "especialidad": "ACADÉMICA",
            "modelosEducativos": "EDUCACIÓN TRADICIONAL",
            "capacidadesExcepcionales": null,
            "discapacidades": null,
            "idiomas": null,
            "prestadorDeServicio": "PERSONA NATURAL",
            "propiedadPlantaFisica": "PERSONA NATURAL",
            "calendario": "A",
            "correoElectronico": "colegioeduardoc@yahoo.es"
        },
        {
            "id": 40,
            "nombreEstablecimiento": "COLEGIO GUSTAVO MORALES MORALES (IED)",
            "zona": "URBANA",
            "direccion": "CL 129 55 55",
            "telefono": "2712209 -- 6245065",
            "tipoEstablecimiento": "INSTITUCION EDUCATIVA",
            "niveles": "PREESCOLAR,MEDIA,BÁSICA SECUNDARIA,BÁSICA PRIMARIA",
            "jornadas": "MAÑANA,NOCTURNA,TARDE",
            "especialidad": "ACADÉMICA",
            "modelosEducativos": "EDUCACIÓN TRADICIONAL,ACELERACIÓN DEL APRENDIZAJE",
            "capacidadesExcepcionales": null,
            "discapacidades": null,
            "idiomas": null,
            "prestadorDeServicio": "OFICIAL",
            "propiedadPlantaFisica": "OFICIAL",
            "calendario": "A",
            "correoElectronico": "coldigustavomorale11@redp.edu.co"
        },
        {
            "id": 41,
            "nombreEstablecimiento": "LIC PSICOPEDAG UCRANIA                                                                              ",
            "zona": "URBANA",
            "direccion": "CR. 3B NO.48R-87 SUR",
            "telefono": "7711508",
            "tipoEstablecimiento": "CENTRO EDUCATIVO",
            "niveles": "PREESCOLAR,BÁSICA PRIMARIA",
            "jornadas": "COMPLETA",
            "especialidad": null,
            "modelosEducativos": "EDUCACIÓN TRADICIONAL",
            "capacidadesExcepcionales": null,
            "discapacidades": null,
            "idiomas": "HEBREO",
            "prestadorDeServicio": "PERSONA NATURAL",
            "propiedadPlantaFisica": "PERSONA NATURAL",
            "calendario": "A",
            "correoElectronico": "Lipsiucrania@hotmail.com                          "
        }
    ],
    "pageable": {
        "pageNumber": 0,
        "pageSize": 20,
        "sort": {
            "empty": true,
            "sorted": false,
            "unsorted": true
        },
        "offset": 0,
        "paged": true,
        "unpaged": false
    },
    "last": false,
    "totalPages": 121,
    "totalElements": 2404,
    "size": 20,
    "number": 0,
    "sort": {
        "empty": true,
        "sorted": false,
        "unsorted": true
    },
    "first": true,
    "numberOfElements": 20,
    "empty": false
}